^C:\USERS\JOSE'S PC\SOURCE\REPOS\EXCERSISE 4\EXCERSISE 4\SOURCE.CPP
C:\USERS\JOSE'S PC\SOURCE\REPOS\EXCERSISE 4\EXCERSISE 4\X64\DEBUG\VC142.PDB
C:\USERS\JOSE'S PC\SOURCE\REPOS\EXCERSISE 4\EXCERSISE 4\X64\DEBUG\VC142.IDB
C:\USERS\JOSE'S PC\SOURCE\REPOS\EXCERSISE 4\EXCERSISE 4\X64\DEBUG\SOURCE.OBJ
