^C:\USERS\JOSE'S PC\SOURCE\REPOS\EXCERSISE 4\EXCERSISE 4\X64\DEBUG\SOURCE.OBJ
C:\USERS\JOSE'S PC\SOURCE\REPOS\EXCERSISE 4\X64\DEBUG\EXCERSISE 4.EXE
C:\USERS\JOSE'S PC\SOURCE\REPOS\EXCERSISE 4\X64\DEBUG\EXCERSISE 4.ILK
C:\USERS\JOSE'S PC\SOURCE\REPOS\EXCERSISE 4\X64\DEBUG\EXCERSISE 4.PDB
