^C:\USERS\JOSE'S PC\SOURCE\REPOS\EZSCAM (QUIZ 1)\EZSCAM (QUIZ 1)\SOURCE.CPP
C:\USERS\JOSE'S PC\SOURCE\REPOS\EZSCAM (QUIZ 1)\EZSCAM (QUIZ 1)\DEBUG\VC142.PDB
C:\USERS\JOSE'S PC\SOURCE\REPOS\EZSCAM (QUIZ 1)\EZSCAM (QUIZ 1)\DEBUG\VC142.IDB
C:\USERS\JOSE'S PC\SOURCE\REPOS\EZSCAM (QUIZ 1)\EZSCAM (QUIZ 1)\DEBUG\SOURCE.OBJ
